{
    "defaultSeverity": "error",
    "extends": [
        "tslint:recommended"
    ],
    "jsRules": {},
    "rules": {
      "variable-name": false,
      "quotemark": false,
      "trailing-comma": false,
      "object-literal-sort-keys": false,
      "no-bitwise": false
    },
    "rulesDirectory": []
}
